[
{
"control_padre_id":null,
"tipo_control_id":1,
"jerarquia":"10",
"nombre":"Gestión de Información",
"valor":null,
"descripcion":"Gestión de Información",
"glosa":null,
"estado":1
},
{
"control_padre_id":1,
"tipo_control_id":2,
"jerarquia":"1001",
"nombre":"Maestros",
"valor":"maestros",
"descripcion":"menu",
"glosa":null,
"estado":1
},
{
"control_padre_id":2,
"tipo_control_id":2,
"jerarquia":"100101",
"nombre":"Personas",
"valor":"maestros.personas",
"descripcion":"sub menu",
"glosa":null,
"estado":1
},
{
"control_padre_id":3,
"tipo_control_id":3,
"jerarquia":"10010101",
"nombre":"Listar",
"valor":"list",
"descripcion":"fa-list",
"glosa":null,
"estado":1
},
{
"control_padre_id":3,
"tipo_control_id":3,
"jerarquia":"10010102",
"nombre":"Nuevo",
"valor":"new",
"descripcion":"fa-plus",
"glosa":null,
"estado":1
},
{
"control_padre_id":3,
"tipo_control_id":3,
"jerarquia":"10010103",
"nombre":"Editar",
"valor":"edit",
"descripcion":"fa-pencil-square-o",
"glosa":null,
"estado":1
},
{
"control_padre_id":3,
"tipo_control_id":3,
"jerarquia":"10010104",
"nombre":"Eliminar",
"valor":"delete",
"descripcion":"fa-trash-o",
"glosa":null,
"estado":0
},
{
"control_padre_id":1,
"tipo_control_id":2,
"jerarquia":"1002",
"nombre":"Accesos",
"valor":"accesos",
"descripcion":"menu",
"glosa":null,
"estado":1
},
{
"control_padre_id":8,
"tipo_control_id":2,
"jerarquia":"100201",
"nombre":"Roles",
"valor":"accesos.roles",
"descripcion":"sub menu",
"glosa":null,
"estado":1
},
{
"control_padre_id":9,
"tipo_control_id":3,
"jerarquia":"10020101",
"nombre":"Listar",
"valor":"list",
"descripcion":"fa-list",
"glosa":"inbarra",
"estado":1
},
{
"control_padre_id":9,
"tipo_control_id":3,
"jerarquia":"10020102",
"nombre":"Nuevo",
"valor":"new",
"descripcion":"fa-plus",
"glosa":"inbarra",
"estado":1
},
{
"control_padre_id":9,
"tipo_control_id":3,
"jerarquia":"10020103",
"nombre":"Editar",
"valor":"edit",
"descripcion":"fa-pencil-square-o",
"glosa":"intable",
"estado":1
},
{
"control_padre_id":9,
"tipo_control_id":3,
"jerarquia":"10020104",
"nombre":"Eliminar",
"valor":"delete",
"descripcion":"fa-trash-o",
"glosa":"intable",
"estado":1
},
{
"control_padre_id":9,
"tipo_control_id":3,
"jerarquia":"10020105",
"nombre":"Accesos Rol",
"valor":"access",
"descripcion":"Fa-check-square-o",
"glosa":"inbarra",
"estado":1
},
{
"control_padre_id":8,
"tipo_control_id":2,
"jerarquia":"100202",
"nombre":"Usuarios",
"valor":"accesos.usuarios",
"descripcion":"sub menu",
"glosa":null,
"estado":1
},
{
"control_padre_id":15,
"tipo_control_id":3,
"jerarquia":"10020201",
"nombre":"Listar",
"valor":"list",
"descripcion":"fa-list",
"glosa":null,
"estado":1
},
{
"control_padre_id":15,
"tipo_control_id":3,
"jerarquia":"10020202",
"nombre":"Nuevo",
"valor":"new",
"descripcion":"fa-plus",
"glosa":null,
"estado":1
},
{
"control_padre_id":15,
"tipo_control_id":3,
"jerarquia":"10020203",
"nombre":"Editar",
"valor":"edit",
"descripcion":"fa-pencil-square-o",
"glosa":null,
"estado":1
},
{
"control_padre_id":15,
"tipo_control_id":3,
"jerarquia":"10020204",
"nombre":"Eliminar",
"valor":"delete",
"descripcion":"fa-trash-o",
"glosa":null,
"estado":1
},
{
"control_padre_id":15,
"tipo_control_id":3,
"jerarquia":"10020205",
"nombre":"accesos",
"valor":"access",
"descripcion":"fa-check-square-o",
"glosa":null,
"estado":1
}
]
