======== nginx ============================================
sudo add-apt-repository ppa:nginx/stable
sudo apt-get update
sudo apt-get install nginx

sudo apt-get install mysql-server php5-fpm php5-cli php5-mcrypt git

sudo nano /etc/nginx/sites-available/default

sudo service nginx restart


 sudo mkdir -p /var/www/html/
 sudo chown -R $USER:$USER /var/www/html/
 sudo chmod -R 755 /var/www/html/

	sudo chown -R :www-data /var/www/html/credito
	sudo chmod -R 775 /var/www/html/credito/storage



======== mysql ============================================

sudo apt-get update
sudo apt-get upgrade
sudo apt-get install mysql-server-5.6


user: root
pass: root

========  ============================================

sudo apt-get install nginx mysql-server php5-fpm php5-cli php5-mcrypt git

sudo apt-get install php5-mysql


sudo nano /var/www/html/info.php
<?php
phpinfo();


